{
  "images" : [
    {
      "filename" : "Default1024x768-1.png",
      "idiom" : "universal",
      "scale" : "1x"
    },
    {
      "filename" : "Default1024x768.png",
      "idiom" : "universal",
      "scale" : "2x"
    },
    {
      "filename" : "Default2048x1536.png",
      "idiom" : "universal",
      "scale" : "3x"
    }
  ],
  "info" : {
    "author" : "xcode",
    "version" : 1
  }
}
